{
 "creation": "2018-06-09 12:39:44.633361", 
 "docstatus": 0, 
 "doctype": "Data Migration Mapping", 
 "fields": [
  {
   "is_child_table": 0, 
   "local_fieldname": "assignment_order", 
   "remote_fieldname": "assignment_order"
  }, 
  {
   "is_child_table": 0, 
   "local_fieldname": "description_1", 
   "remote_fieldname": "description_1"
  }, 
  {
   "is_child_table": 0, 
   "local_fieldname": "description_2", 
   "remote_fieldname": "description_2"
  }, 
  {
   "is_child_table": 0, 
   "local_fieldname": "description_3", 
   "remote_fieldname": "description_3"
  }, 
  {
   "is_child_table": 0, 
   "local_fieldname": "description_4", 
   "remote_fieldname": "description_4"
  }
 ], 
 "idx": 1, 
 "local_doctype": "Tournament Prizes Description", 
 "mapping_name": "Tournament Prizes Description", 
 "mapping_type": "Pull", 
 "migration_id_field": "avium_central_id", 
 "modified": "2019-11-01 17:10:05.836293", 
 "modified_by": "Administrator", 
 "name": "Tournament Prizes Description", 
 "owner": "Administrator", 
 "page_length": 10, 
 "remote_objectname": "Tournament Prizes Description", 
 "remote_primary_key": "name"
}