{
 "creation": "2018-03-09 19:07:52.404768", 
 "docstatus": 0, 
 "doctype": "Data Migration Mapping", 
 "fields": [
  {
   "is_child_table": 0, 
   "local_fieldname": "family", 
   "remote_fieldname": "family"
  }, 
  {
   "is_child_table": 0, 
   "local_fieldname": "family_name", 
   "remote_fieldname": "family_name"
  }, 
  {
   "is_child_table": 0, 
   "local_fieldname": "license_year", 
   "remote_fieldname": "license_year"
  }, 
  {
   "is_child_table": 0, 
   "local_fieldname": "parenttype", 
   "remote_fieldname": "parenttype"
  }, 
  {
   "is_child_table": 0, 
   "local_fieldname": "parentfield", 
   "remote_fieldname": "parentfield"
  }, 
  {
   "is_child_table": 0, 
   "local_fieldname": "parent", 
   "remote_fieldname": "parent"
  }, 
  {
   "is_child_table": 0, 
   "local_fieldname": "idx", 
   "remote_fieldname": "idx"
  }
 ], 
 "idx": 0, 
 "local_doctype": "Judgement Capabilities", 
 "local_primary_key": "name", 
 "mapping_name": "Judgement Capabilities", 
 "mapping_type": "Pull", 
 "migration_id_field": "avium_central_id", 
 "modified": "2018-06-09 12:39:53.054619", 
 "modified_by": "Administrator", 
 "name": "Judgement Capabilities", 
 "owner": "Administrator", 
 "page_length": 10, 
 "remote_objectname": "Judgement Capabilities", 
 "remote_primary_key": "name"
}